<?xml version="1.0" encoding="utf-8"?>
<!-- Generator: Adobe Illustrator 15.0.0, SVG Export Plug-In . SVG Version: 6.00 Build 0)  -->
<!DOCTYPE svg PUBLIC "-//W3C//DTD SVG 1.1//EN" "http://www.w3.org/Graphics/SVG/1.1/DTD/svg11.dtd">
<svg version="1.1" id="Layer_1" xmlns="http://www.w3.org/2000/svg" xmlns:xlink="http://www.w3.org/1999/xlink" x="0px" y="0px"
	 width="64px" height="64px" viewBox="0 0 64 64" enable-background="new 0 0 64 64" xml:space="preserve">
<g>
	<g>
		<path d="M39.766,50.554c-0.204-0.204-0.509-0.275-0.781-0.183c-1.78,0.605-4.096,0.927-6.692,0.927
			c-7.299,0-15.18-2.532-15.18-6.624c0-0.309-0.186-0.584-0.468-0.701c-0.286-0.117-0.611-0.053-0.829,0.164
			c-4.407,4.406-3.377,14.205-3.329,14.622c0.042,0.386,0.368,0.677,0.755,0.677h31.432c0.007,0,0.015,0,0.015,0
			c0.425,0,0.765-0.344,0.765-0.76c0-0.14-0.037-0.27-0.102-0.38C45.102,57.545,43.962,54.75,39.766,50.554z M13.94,57.916
			c-0.128-1.992-0.29-7.903,1.987-11.491c1.665,4.166,9.213,6.393,16.364,6.393c2.551,0,4.86-0.297,6.725-0.862
			c2.716,2.776,3.973,4.84,4.525,5.961H13.94z"/>
	</g>
	<g>
		<path d="M48.688,20.263c-0.194-0.263-0.536-0.368-0.85-0.266c-0.31,0.102-0.52,0.392-0.52,0.719c0,0.056,0.006,0.111,0.006,0.111
			c0.006,1.161-0.351,2.285-1.021,3.252c-0.176,0.253-0.181,0.586-0.018,0.845c3.679,5.739,4.146,10.889,1.256,13.783
			c-0.978,0.982-2.418,1.477-4.278,1.477c-4.896,0-11.254-3.313-16.59-8.646c-7.464-7.47-10.815-17.221-7.172-20.867
			c0.979-0.979,2.419-1.477,4.277-1.477c4.235,0,7.979,1.455,12.138,4.716c0.244,0.191,0.579,0.216,0.847,0.06
			c0.903-0.519,1.852-0.781,2.827-0.781c0.114,0,0.226,0.017,0.335,0.033l0.257,0.031c0.027,0.004,0.064,0.006,0.085,0.004
			c0.457-0.023,0.769-0.338,0.769-0.761c0-0.278-0.148-0.52-0.372-0.653c-5.477-4.829-11.158-7.277-16.885-7.277
			c-2.584,0-5.244,0.985-7.552,2.83c-1.186,1.188-2.011,2.701-2.457,4.503c-2.498,4.033-3.817,8.707-3.817,13.527
			c0,13.393,9.979,24.288,22.247,24.288c5.015,0,9.748-1.791,13.701-5.176c1.979-0.414,3.632-1.272,4.916-2.555
			C55.788,37.012,54.973,28.69,48.688,20.263z M49.743,40.909c-1.107,1.105-2.564,1.838-4.33,2.174
			c-0.133,0.025-0.256,0.087-0.356,0.173c-3.704,3.23-8.147,4.936-12.856,4.936c-11.429,0-20.726-10.213-20.726-22.766
			c0-4.577,1.262-9.011,3.65-12.825c0.044-0.071,0.076-0.148,0.096-0.229c0.372-1.578,1.071-2.892,2.018-3.845
			c1.947-1.553,4.331-2.442,6.541-2.442c4.866,0,9.725,1.921,14.473,5.714c-0.611,0.122-1.209,0.326-1.791,0.612
			c-4.29-3.272-8.219-4.736-12.682-4.736c-2.277,0-4.078,0.647-5.352,1.921c-4.364,4.367-1.146,14.69,7.172,23.013
			c5.611,5.61,12.38,9.097,17.665,9.097c2.277,0,4.08-0.646,5.353-1.924c3.358-3.36,3.056-9.042-0.789-15.264
			c0.334-0.556,0.587-1.149,0.759-1.76C53.364,29.965,53.841,36.812,49.743,40.909z"/>
	</g>
	<g>
		<path d="M34.812,19.501h-7.453c-1.277,0-2.314,1.039-2.314,2.314c0,1.278,1.038,2.316,2.314,2.316h9.001
			c0.03,0.031,0.062,0.062,0.091,0.091v9.129c0,1.275,1.039,2.316,2.316,2.316c1.276,0,2.315-1.041,2.315-2.316v-7.581
			c2.706-0.374,4.798-2.702,4.798-5.509c0-3.063-2.494-5.557-5.559-5.557C37.514,14.706,35.186,16.796,34.812,19.501z
			 M44.359,20.263c0,2.227-1.812,4.039-4.038,4.039c-0.419,0-0.76,0.34-0.76,0.76v8.291c0,0.438-0.358,0.797-0.795,0.797
			c-0.438,0-0.797-0.358-0.797-0.797v-9.464c0-0.219-0.095-0.426-0.26-0.571c-0.157-0.136-0.304-0.281-0.438-0.437
			c-0.144-0.17-0.355-0.267-0.577-0.267h-9.336c-0.438,0-0.796-0.357-0.796-0.797c0-0.437,0.358-0.793,0.796-0.793h8.164
			c0.418,0,0.758-0.34,0.758-0.76c0-2.227,1.814-4.04,4.041-4.04S44.359,18.036,44.359,20.263z"/>
	</g>
	<g>
		<path d="M46.443,15.115c0.156,0,0.286-0.048,0.393-0.146l2.543-2.352l2.353,2.54c0.098,0.108,0.232,0.17,0.376,0.175l0.017,0.001
			h0.002c0.139,0,0.269-0.053,0.369-0.146c0.109-0.1,0.169-0.23,0.174-0.374c0.007-0.148-0.043-0.283-0.145-0.392l-2.352-2.542
			l2.541-2.353c0.109-0.099,0.17-0.23,0.175-0.377c0.004-0.145-0.044-0.284-0.144-0.392c-0.183-0.195-0.568-0.21-0.768-0.028
			l-2.54,2.353l-2.354-2.542c-0.182-0.198-0.569-0.213-0.769-0.029c-0.218,0.202-0.23,0.548-0.026,0.768l2.354,2.542l-2.544,2.353
			c-0.107,0.099-0.168,0.23-0.173,0.377c-0.006,0.145,0.044,0.281,0.143,0.387C46.167,15.047,46.3,15.108,46.443,15.115z"/>
	</g>
</g>
</svg>
