<?xml version="1.0" encoding="iso-8859-1"?>
<!-- Generator: Adobe Illustrator 18.1.1, SVG Export Plug-In . SVG Version: 6.00 Build 0)  -->
<svg version="1.1" id="Capa_1" xmlns="http://www.w3.org/2000/svg" xmlns:xlink="http://www.w3.org/1999/xlink" x="0px" y="0px"
	 viewBox="0 0 30.716 30.717" style="enable-background:new 0 0 30.716 30.717;" xml:space="preserve">
<g>
	<path style="fill-rule:evenodd;clip-rule:evenodd;fill:#050008;" d="M19.432,19.433L19.432,19.433
		c-1.125,1.125-2.6,1.688-4.074,1.688c-1.474,0-2.949-0.562-4.073-1.687l-0.001-0.001c-1.125-1.125-1.687-2.6-1.687-4.074h0.002
		c-0.001-1.474,0.562-2.949,1.684-4.072l0.001-0.001l-0.001-0.001c1.125-1.125,2.6-1.687,4.075-1.687
		c1.471,0,2.946,0.562,4.071,1.687l0.001,0.001l0.001,0.001l0.001,0.001c1.125,1.126,1.686,2.6,1.686,4.071
		C21.119,16.833,20.556,18.308,19.432,19.433L19.432,19.433z M18.752,18.754L18.752,18.754c0.938-0.937,1.407-2.167,1.407-3.396
		c0-1.23-0.468-2.46-1.404-3.395l-0.002-0.002c-0.935-0.936-2.165-1.404-3.394-1.404c-1.229,0-2.458,0.469-3.395,1.406l-0.001-0.001
		c-0.937,0.939-1.407,2.168-1.407,3.396h0.002c0,1.228,0.469,2.458,1.406,3.394l0,0c0.937,0.937,2.165,1.406,3.394,1.406
		C16.586,20.16,17.815,19.691,18.752,18.754z"/>
	<path style="fill-rule:evenodd;clip-rule:evenodd;fill:#050008;" d="M29.756,15.359c0-3.976-1.612-7.576-4.217-10.181
		C22.934,2.572,19.334,0.96,15.358,0.96c-3.976,0-7.576,1.612-10.181,4.217C2.572,7.782,0.96,11.383,0.96,15.359
		c0,3.976,1.612,7.576,4.217,10.181c2.605,2.605,6.205,4.217,10.181,4.217c3.976,0,7.576-1.612,10.181-4.217
		C28.144,22.935,29.756,19.334,29.756,15.359L29.756,15.359z M26.218,4.498c2.779,2.779,4.498,6.619,4.498,10.86
		c0,4.24-1.719,8.081-4.498,10.86c-2.779,2.779-6.619,4.498-10.86,4.498c-4.241,0-8.081-1.719-10.86-4.498S0,19.6,0,15.359
		c0-4.241,1.719-8.081,4.498-10.86S11.117,0,15.358,0C19.599,0,23.439,1.719,26.218,4.498z"/>
	<path style="fill-rule:evenodd;clip-rule:evenodd;fill:#050008;" d="M10.502,3.861c0.243-0.102,0.524,0.012,0.626,0.255
		c0.102,0.243-0.012,0.524-0.255,0.626c-1.373,0.58-2.615,1.426-3.66,2.47C6.168,8.257,5.323,9.5,4.741,10.873
		c-0.102,0.243-0.383,0.357-0.626,0.255c-0.243-0.102-0.357-0.382-0.255-0.626c0.633-1.497,1.548-2.843,2.673-3.969
		C7.659,5.407,9.005,4.494,10.502,3.861L10.502,3.861z M2.878,15.359c0,1.656,0.328,3.275,0.948,4.775l0.001,0.002H3.826
		c0.621,1.498,1.535,2.876,2.707,4.048l0.027,0.025c1.167,1.16,2.534,2.065,4.02,2.681v0c1.5,0.621,3.12,0.949,4.778,0.949
		c1.657,0,3.276-0.328,4.775-0.948l0.002-0.001v0.001c1.498-0.621,2.875-1.535,4.048-2.707c1.171-1.171,2.085-2.549,2.707-4.048
		l0.011-0.028c0.614-1.492,0.937-3.102,0.937-4.749c0-1.656-0.328-3.276-0.948-4.775l-0.001-0.002h0.001
		c-0.621-1.499-1.535-2.877-2.707-4.048c-1.169-1.17-2.547-2.084-4.048-2.706v0c-1.498-0.621-3.118-0.949-4.776-0.949
		c-0.265,0-0.48,0.216-0.48,0.48c0,0.265,0.215,0.48,0.48,0.48c1.536,0,3.031,0.302,4.409,0.873V4.711l0.002,0.001
		c1.379,0.571,2.65,1.416,3.735,2.501s1.93,2.355,2.501,3.736h0c0.57,1.378,0.872,2.874,0.872,4.41c0,1.529-0.299,3.018-0.864,4.391
		l-0.008,0.019c-0.572,1.381-1.417,2.651-2.501,3.736c-1.085,1.085-2.356,1.93-3.736,2.502v0.001
		c-1.379,0.57-2.874,0.872-4.41,0.872c-1.535,0-3.03-0.301-4.41-0.873v0.001l-0.002-0.001c-1.371-0.567-2.632-1.404-3.711-2.476
		l-0.023-0.025c-1.085-1.085-1.93-2.356-2.502-3.736H4.71c-0.57-1.378-0.872-2.874-0.872-4.41c0-0.265-0.215-0.48-0.48-0.48
		C3.093,14.878,2.878,15.094,2.878,15.359z"/>
	<path style="fill-rule:evenodd;clip-rule:evenodd;fill:#050008;" d="M17.395,17.395c-0.562,0.562-1.3,0.844-2.036,0.844
		c-0.737,0-1.475-0.281-2.037-0.844c-0.562-0.562-0.843-1.3-0.843-2.037c0-0.736,0.281-1.474,0.843-2.037
		c0.562-0.562,1.3-0.844,2.037-0.844c0.736,0,1.474,0.281,2.036,0.844c0.562,0.562,0.844,1.3,0.844,2.037
		C18.239,16.095,17.958,16.833,17.395,17.395L17.395,17.395z M15.359,17.278c0.491,0,0.983-0.188,1.358-0.562
		c0.375-0.375,0.563-0.867,0.563-1.358c0-0.491-0.188-0.983-0.563-1.358c-0.375-0.375-0.867-0.563-1.358-0.563
		c-0.491,0-0.984,0.188-1.358,0.563c-0.375,0.375-0.562,0.867-0.562,1.358c0,0.491,0.188,0.983,0.562,1.358
		C14.375,17.091,14.867,17.278,15.359,17.278z"/>
</g>
<g>
</g>
<g>
</g>
<g>
</g>
<g>
</g>
<g>
</g>
<g>
</g>
<g>
</g>
<g>
</g>
<g>
</g>
<g>
</g>
<g>
</g>
<g>
</g>
<g>
</g>
<g>
</g>
<g>
</g>
</svg>
